{
    "Terrestrial": [
        [
            "Temperate",
            [
                "Deciduous Forest",
                "Shrubland",
                "Desert",
                "Cacti Forest",
                "Heathland",
                "Broadleaf Forest",
                "Mixed Forest",
                "Coniferous Forest",
                "Evergreen Forest",
                "Cave",
                "Swamp",
                "Plain",
                "Highland",
                "Mountain",
                "Marshland"
            ]
        ],
        [
            "Arctic",
            [
                "Coniferous Forest",
                "Evergreen Forest",
                "Cave",
                "Desert",
                "Tundra",
                "Highland",
                "Mountain",
                "Glacier"
            ]
        ],
        [
            "Tropical",
            [
                "Tropical Forest",
                "Shrubland",
                "Desert",
                "Cacti Forest",
                "Heathland",
                "Cave",
                "Swamp",
                "Savannah",
                "Highland",
                "Mountain",
                "Deciduous Forest",
                "Broadleaf Forest",
                "Marshland"
            ]
        ]
    ],
    "Aerial": [
        [
            "Temperate",
            [
                "Deciduous Forest",
                "Shrubland",
                "Desert",
                "Cacti Forest",
                "Heathland",
                "Broadleaf Forest",
                "Mixed Forest",
                "Coniferous Forest",
                "Evergreen Forest",
                "Tropical Forest",
                "Swamp",
                "Plain",
                "Highland",
                "Mountain",
                "Marshland"
            ]
        ],
        [
            "Arctic",
            [
                "Coniferous Forest",
                "Evergreen Forest",
                "Tundra",
                "Desert",
                "Highland",
                "Mountain"
            ]
        ],
        [
            "Tropical",
            [
                "Tropical Forest",
                "Shrubland",
                "Desert",
                "Cacti Forest",
                "Heathland",
                "Cave",
                "Swamp",
                "Savannah",
                "Highland",
                "Mountain",
                "Marshland"
            ]
        ]
    ],
    "Subterranean": [
        [
            "Temperate",
            [
                "Deciduous Forest",
                "Shrubland",
                "Desert",
                "Cacti Forest",
                "Heathland",
                "Broadleaf Forest",
                "Mixed Forest",
                "Coniferous Forest",
                "Evergreen Forest",
                "Cave",
                "Swamp",
                "Plain",
                "Highland",
                "Mountain",
                "Marshland"
            ]
        ],
        [
            "Arctic",
            [
                "Coniferous Forest",
                "Evergreen Forest",
                "Cave",
                "Desert",
                "Tundra",
                "Highland",
                "Mountain",
                "Glacier"
            ]
        ],
        [
            "Tropical",
            [
                "Tropical Forest",
                "Shrubland",
                "Desert",
                "Cacti Forest",
                "Heathland",
                "Cave",
                "Swamp",
                "Savannah",
                "Highland",
                "Mountain",
                "Deciduous Forest",
                "Broadleaf Forest",
                "Marshland"
            ]
        ]
    ],
    "Aquatic": [
        [
            "Temperate",
            [
                "River",
                "Pond",
                "Swamp",
                "Ocean",
                "Lake",
                "Marshland"
            ]
        ],
        [
            "Arctic",
            [
                "River",
                "Ocean",
                "Lake"
            ]
        ],
        [
            "Tropical",
            [
                "River",
                "Pond",
                "Swamp",
                "Ocean",
                "Lake",
                "Marshland"
            ]
        ]
    ],
    "Amphibian": [
        [
            "Temperate",
            [
                "River Bank",
                "Pond",
                "Swamp",
                "Beach",
                "Lakeshore",
                "Marshland"
            ]
        ],
        [
            "Arctic",
            [
                "River Bank",
                "Beach",
                "Lakeshore"
            ]
        ],
        [
            "Tropical",
            [
                "River Bank",
                "Pond",
                "Swamp",
                "Beach",
                "Lakeshore",
                "Marshland"
            ]
        ]
    ]
}